Mini-Project 01 - Assessing the Impact of SFFA on Campus Diversity One-Year Later – STA 9750 Submission Material
…
To verify that the is_calpublic variable correctly identifies institutions in the University of California and California State systems, I generated a list of the institutions flagged by this variable.

Code

IPEDS |>
  filter(is_calpublic) |>
  distinct(institution_name) |>
  arrange(institution_name)

# A tibble: 29 × 1
   institution_name                                
   <chr>                                           
 1 California State Polytechnic University-Humboldt
 2 California State Polytechnic University-Pomona  
 3 California State University Maritime Academy    
 4 California State University-Bakersfield         
 5 California State University-Channel Islands     
 6 California State University-Chico               
 7 California State University-Dominguez Hills     
 8 California State University-East Bay            
 9 California State University-Fresno              
10 California State University-Fullerton           
# ℹ 19 more rows
…
